[
  {
    "_id": "58b149f9b5301b36a8416b6b",
    "booking": true,
    "fee": true,
    "indoor": false,
    "name": "Tennis Club Smash Asbl",
    "outdoor": true,
    "phone": "+352404010",
    "type": "Sport Club",
    "opening": {
      "except": [],
      "default": []
    },
    "coord": {
      "e": 6.127287,
      "n": 49.620315
    },
    "sports": [
      "tennis"
    ],
    "address": {
      "city": "Luxembourg",
      "street": "Boulevard Paul Eyschen",
      "zip": "1480"
    }
  },
  {
    "_id": "58b149f9b5301b36a8416b6c",
    "booking": true,
    "fee": true,
    "indoor": false,
    "name": "Football field Cents",
    "outdoor": true,
    "phone": "+352432223",
    "type": "Playground",
    "opening": {
      "except": [],
      "default": []
    },
    "coord": {
      "e": 6.154528,
      "n": 49.615508
    },
    "sports": [
      "football / soccer"
    ],
    "address": {
      "city": "Luxembourg",
      "number": "26",
      "street": "Rue Tawioun",
      "zip": "2612"
    }
  },
  {
    "_id": "58b149f9b5301b36a8416b6d",
    "booking": true,
    "fee": true,
    "indoor": false,
    "name": "Sport fields Boy Konen",
    "outdoor": true,
    "phone": "+35247962880",
    "type": "Sport Center",
    "opening": {
      "except": [],
      "default": []
    },
    "coord": {
      "e": 6.0925015,
      "n": 49.5806021
    },
    "sports": [
      "football / soccer",
      "rugby"
    ],
    "address": {
      "city": "Luxembourg",
      "number": "3",
      "street": "Rue des Sports",
      "zip": "2548"
    }
  },
  {
    "_id": "58b149f9b5301b36a8416b6e",
    "booking": true,
    "fee": true,
    "indoor": false,
    "name": "Football field Hollerich",
    "outdoor": true,
    "phone": "+352490759",
    "type": "Playground",
    "opening": {
      "except": [],
      "default": []
    },
    "coord": {
      "e": 6.1164911,
      "n": 49.6013771
    },
    "sports": [
      "football / soccer"
    ],
    "address": {
      "city": "Luxembourg",
      "street": "Rue de l'Abattoir",
      "zip": "1924"
    }
  },
  {
    "_id": "58b149f9b5301b36a8416b6f",
    "booking": false,
    "fee": false,
    "indoor": false,
    "name": "Basketball field Victor Hugo",
    "outdoor": true,
    "type": "Playground",
    "opening": {
      "except": [],
      "default": []
    },
    "coord": {
      "e": 6.12294,
      "n": 49.619955
    },
    "sports": [
      "basketball"
    ],
    "address": {
      "city": "Luxembourg",
      "number": "41",
      "street": "Avenue Victor Hugo",
      "zip": "1750"
    }
  },
  {
    "_id": "58b149f9b5301b36a8416b70",
    "booking": true,
    "fee": true,
    "indoor": false,
    "name": "Football field Bonnevoie",
    "outdoor": true,
    "phone": "+352483797",
    "type": "Playground",
    "opening": {
      "except": [],
      "default": []
    },
    "coord": {
      "e": 6.1492015,
      "n": 49.5959185
    },
    "sports": [
      "football / soccer"
    ],
    "address": {
      "city": "Luxembourg",
      "street": "Rue J.A. Müller",
      "zip": "2169"
    }
  }
]